#
# CSS
#

https://cdnjs.cloudflare.com/ajax/libs/twitter-bootstrap/5.3.3/css/bootstrap.min.css
https://cdnjs.cloudflare.com/ajax/libs/twitter-bootstrap/5.3.3/css/bootstrap.min.css.map
https://cdnjs.cloudflare.com/ajax/libs/twitter-bootstrap/5.3.3/css/bootstrap.css
https://cdnjs.cloudflare.com/ajax/libs/twitter-bootstrap/5.3.3/css/bootstrap.css.map

https://cdn.datatables.net/v/bs5/jq-3.7.0/dt-2.2.2/fc-5.0.4/fh-4.0.1/sc-2.4.3/datatables.min.css
https://cdn.datatables.net/v/bs5/jq-3.7.0/dt-2.2.2/fc-5.0.4/fh-4.0.1/sc-2.4.3/datatables.css

#
# JavaScript
#

https://cdnjs.cloudflare.com/ajax/libs/twitter-bootstrap/5.3.3/js/bootstrap.bundle.min.js
https://cdnjs.cloudflare.com/ajax/libs/twitter-bootstrap/5.3.3/js/bootstrap.bundle.min.js.map
https://cdnjs.cloudflare.com/ajax/libs/twitter-bootstrap/5.3.3/js/bootstrap.bundle.js
https://cdnjs.cloudflare.com/ajax/libs/twitter-bootstrap/5.3.3/js/bootstrap.bundle.js.map

https://cdn.datatables.net/v/bs5/jq-3.7.0/dt-2.2.2/fc-5.0.4/fh-4.0.1/sc-2.4.3/datatables.min.js
https://cdn.datatables.net/v/bs5/jq-3.7.0/dt-2.2.2/fc-5.0.4/fh-4.0.1/sc-2.4.3/datatables.js
